<?xml version="1.0" encoding="UTF-8" standalone="no"?>
<!-- Created with Inkscape (http://www.inkscape.org/) -->
<svg
   xmlns:svg="http://www.w3.org/2000/svg"
   xmlns="http://www.w3.org/2000/svg"
   version="1.0"
   width="16"
   height="16"
   id="svg2">
  <defs
     id="defs4" />
  <g
     id="layer1">
    <path
       d="M 3.1143309,14.857048 C 4.8432904,13.355814 7.0262583,12.274045 9.1143311,11.857048"
       id="path3159"
       style="opacity:1;fill:none;fill-opacity:0.75;fill-rule:evenodd;stroke:#25617f;stroke-width:1.20000005;stroke-linecap:round;stroke-linejoin:round;marker:none;marker-start:none;marker-mid:none;marker-end:none;stroke-miterlimit:4;stroke-dasharray:none;stroke-dashoffset:0;stroke-opacity:1;visibility:visible;display:inline;overflow:visible;enable-background:accumulate" />
    <path
       d="M 9.2171131,3.9977554 L 9.3403365,4.7955663 C 9.8019154,4.7101753 9.9854883,4.8374357 10.079677,4.9855213 C 10.173866,5.1336069 10.175327,5.3624157 10.110483,5.6313682 C 10.045639,5.9003207 9.8953811,6.1494474 9.7408126,6.2392241 C 9.5862441,6.3290008 9.4299807,6.3675729 9.1555014,6.0872601 L 8.7550253,6.695116 C 9.1715144,7.1204566 9.6490438,7.1753883 10.018066,6.961053 C 10.387087,6.7467177 10.647351,6.3157902 10.757406,5.8593142 C 10.867461,5.4028381 10.833484,4.9018491 10.572571,4.4916384 C 10.311658,4.0814277 9.8219511,3.8858618 9.2171131,3.9977554 z"
       id="path3266"
       style="fill:#ffffff;fill-opacity:1;fill-rule:evenodd;stroke:none;stroke-width:0.65764797;stroke-linecap:butt;stroke-linejoin:miter;stroke-miterlimit:4;stroke-dasharray:none;stroke-opacity:1" />
    <path
       d="M 9.5995102,11.457375 L 12.285088,1.9150043 L 13.342176,1.4864548 L 14.742105,1.8292944 L 15.427784,2.8006734 L 12.056528,12.200194 L 11.456558,12.257334 L 10.999439,13.685832 L 10.14234,13.742972 L 9.4566604,13.314423 L 9.85664,11.800214 L 9.5995102,11.457375 z"
       id="path3171"
       style="fill:#ffffff;fill-opacity:1;fill-rule:evenodd;stroke:none;stroke-width:1px;stroke-linecap:butt;stroke-linejoin:miter;stroke-opacity:1" />
    <path
       d="M 8.7550253,6.695116 C 9.1715144,7.1204566 9.6490438,7.1753883 10.018066,6.961053 C 10.387087,6.7467177 10.647351,6.3157902 10.757406,5.8593142 C 10.867461,5.4028381 10.833484,4.9018491 10.572571,4.4916384 C 10.311658,4.0814277 9.8219511,3.8858618 9.2171131,3.9977554"
       id="path3378"
       style="fill:none;fill-opacity:1;fill-rule:evenodd;stroke:#000000;stroke-width:0.43789193;stroke-linecap:round;stroke-linejoin:round;stroke-miterlimit:4;stroke-dasharray:none;stroke-opacity:1" />
    <path
       d="M 0.25712974,4.7434314 L 0.44283455,4.1148921 L 1.7284832,3.6292026 L 3.956941,3.3863578 L 6.5425234,3.4006428 L 8.9281159,3.9577572 L 9.2852406,4.186317 L 9.3995204,4.6862915 L 9.2281006,5.8290903 L 8.5567063,7.186164 L 7.7281771,8.0432631 L 6.7139432,8.6575175 L 5.4711494,8.9860721 L 3.6712413,8.9146472 L 2.0284679,8.143258 L 1.1570838,7.2575889 L 0.45711954,5.9433702 L 0.24284475,5.3005459 L 0.25712974,4.7434314 z"
       id="path3400"
       style="fill:#ffffff;fill-opacity:1;fill-rule:evenodd;stroke:none;stroke-width:1px;stroke-linecap:butt;stroke-linejoin:miter;stroke-opacity:1" />
    <path
       d="M 9.5995103,11.485944 L 12.313657,1.8864344 C 13.483036,1.1784562 14.724019,1.5405194 15.370644,2.6863936 L 11.942248,12.143053 C 10.885354,12.429983 10.204041,12.028347 9.5995103,11.485944 z"
       id="path3161"
       style="fill:none;fill-opacity:0.75;fill-rule:evenodd;stroke:#000000;stroke-width:1px;stroke-linecap:round;stroke-linejoin:round;stroke-opacity:1" />
    <path
       d="M 12.113668,2.0864242 C 12.872437,3.2115503 13.916728,3.5514903 15.284934,3.0006633"
       id="path3165"
       style="fill:none;fill-opacity:0.75;fill-rule:evenodd;stroke:#000000;stroke-width:0.80000001;stroke-linecap:butt;stroke-linejoin:miter;stroke-miterlimit:4;stroke-dasharray:none;stroke-opacity:1" />
    <path
       d="M 9.4667782,13.28 L 9.9001327,11.747294 L 11.46213,12.191856 L 10.919875,13.687576 C 10.26433,13.865546 9.8417422,13.616429 9.4667782,13.28 z"
       id="path3167"
       style="fill:none;fill-opacity:0.75;fill-rule:evenodd;stroke:#000000;stroke-width:0.62025601px;stroke-linecap:round;stroke-linejoin:round;stroke-opacity:1" />
    <path
       d="M 9.6852201,13.600122 L 9.4852303,14.714351 L 10.31376,14.600071 L 10.513749,13.771542 L 9.6852201,13.600122 z"
       id="path3169"
       style="fill:#000000;fill-opacity:1;fill-rule:evenodd;stroke:none;stroke-width:1px;stroke-linecap:butt;stroke-linejoin:miter;stroke-opacity:1" />
    <path
       d="M 13.856436,6.4290597 C 13.872263,6.0138026 12.959739,5.7596828 12.713637,6.5147697 L 11.456558,10.371715 C 11.201005,11.155796 11.990731,11.133579 12.370797,10.914545"
       id="path3173"
       style="fill:none;fill-opacity:0.75;fill-rule:evenodd;stroke:#000000;stroke-width:0.40000001;stroke-linecap:butt;stroke-linejoin:miter;stroke-miterlimit:4;stroke-dasharray:none;stroke-opacity:1" />
    <path
       d="M 9.3403365,4.7955663 C 9.8019154,4.7101753 9.9854883,4.8374357 10.079677,4.9855213 C 10.173866,5.1336069 10.175327,5.3624157 10.110483,5.6313682 C 10.045639,5.9003207 9.8953811,6.1494474 9.7408126,6.2392241 C 9.5862441,6.3290008 9.4299807,6.3675729 9.1555014,6.0872601"
       id="path3374"
       style="fill:none;fill-opacity:1;fill-rule:evenodd;stroke:#000000;stroke-width:0.27368245;stroke-linecap:butt;stroke-linejoin:miter;stroke-miterlimit:4;stroke-dasharray:none;stroke-opacity:1" />
    <path
       d="M 9.3507229,4.5822148 C 9.2306684,4.6665404 9.0935945,4.7199567 8.9396929,4.7877298 C 8.6318897,4.9232761 8.2636463,5.0319226 7.829912,5.1165537 C 6.9624433,5.2858159 5.8704583,5.3631717 4.7882902,5.3631717 C 3.7061221,5.3631717 2.6141372,5.2858159 1.746669,5.1165537 C 1.3129343,5.0319226 0.94469071,4.9232761 0.63688781,4.7877298 C 0.48298635,4.7199567 0.34591146,4.6665404 0.22585784,4.5822148"
       id="path3356"
       style="opacity:1;fill:none;fill-opacity:1;fill-rule:evenodd;stroke:#000000;stroke-width:0.5;stroke-linecap:round;stroke-linejoin:round;marker:none;marker-start:none;marker-mid:none;marker-end:none;stroke-miterlimit:4;stroke-dasharray:none;stroke-dashoffset:0;stroke-opacity:1;visibility:visible;display:inline;overflow:visible;enable-background:accumulate" />
    <path
       d="M 0.22585784,4.7536348 C 0.70703649,10.352642 8.8695442,10.390309 9.3507229,4.7536348"
       id="path3252"
       style="opacity:1;fill:none;fill-opacity:1;fill-rule:evenodd;stroke:#000000;stroke-width:0.5;stroke-linecap:round;stroke-linejoin:round;marker:none;marker-start:none;marker-mid:none;marker-end:none;stroke-miterlimit:4;stroke-dasharray:none;stroke-dashoffset:0;stroke-opacity:1;visibility:visible;display:inline;overflow:visible;enable-background:accumulate" />
    <path
       d="M 8.6071247,4.6875 C 7.7260126,4.3799263 6.2659505,4.25 4.7946247,4.25 C 3.3232989,4.2500001 1.8632365,4.3799262 0.98212464,4.6875"
       id="path3344"
       style="opacity:1;fill:none;fill-opacity:1;fill-rule:evenodd;stroke:#000000;stroke-width:0.2;stroke-linecap:round;stroke-linejoin:round;marker:none;marker-start:none;marker-mid:none;marker-end:none;stroke-miterlimit:4;stroke-dasharray:none;stroke-dashoffset:0;stroke-opacity:1;visibility:visible;display:inline;overflow:visible;enable-background:accumulate" />
    <path
       d="M 9.1863109,4.1120237 C 8.5276996,3.608512 6.6584766,3.3721698 4.7882902,3.3721698 C 2.9181039,3.3721698 1.0488806,3.608512 0.39026983,4.1120237"
       id="path3350"
       style="opacity:1;fill:none;fill-opacity:1;fill-rule:evenodd;stroke:#000000;stroke-width:0.40000001;stroke-linecap:round;stroke-linejoin:round;marker:none;marker-start:none;marker-mid:none;marker-end:none;stroke-miterlimit:4;stroke-dasharray:none;stroke-dashoffset:0;stroke-opacity:1;visibility:visible;display:inline;overflow:visible;enable-background:accumulate" />
    <path
       d="M 4.7882902,4.5155078 C 4.7888702,4.5149278 2.7055765,2.7439797 3.8018183,2.07089 C 5.1824292,1.2231984 4.9662691,0.47260277 5.08571,0.11427995 C 5.8355227,0.84156699 6.1546216,1.7715095 5.1171142,2.399714 C 4.0534739,3.0437419 4.7882902,4.5155078 4.7882902,4.5155078 z"
       id="path3256"
       style="opacity:1;fill:#ffffff;fill-opacity:1;fill-rule:evenodd;stroke:#000000;stroke-width:0.30000001;stroke-linecap:butt;stroke-linejoin:round;marker:none;marker-start:none;marker-mid:none;marker-end:none;stroke-miterlimit:4;stroke-dasharray:none;stroke-dashoffset:0;stroke-opacity:1;visibility:visible;display:inline;overflow:visible;enable-background:accumulate" />
    <path
       d="M 8.6071247,4.43037 C 7.8502123,4.1661512 6.6660617,4.033028 5.4145481,4.0007482"
       id="path3358"
       style="opacity:1;fill:none;fill-opacity:1;fill-rule:evenodd;stroke:#000000;stroke-width:0.1;stroke-linecap:round;stroke-linejoin:round;marker:none;marker-start:none;marker-mid:none;marker-end:none;stroke-miterlimit:4;stroke-dasharray:none;stroke-dashoffset:0;stroke-opacity:1;visibility:visible;display:inline;overflow:visible;enable-background:accumulate" />
    <path
       d="M 5.6142544,8.2714147 C 6.8510236,7.9415589 7.9124763,6.8002878 7.9856641,5.9428601"
       id="path3360"
       style="fill:none;fill-opacity:0.75;fill-rule:evenodd;stroke:#000000;stroke-width:0.2;stroke-linecap:round;stroke-linejoin:miter;stroke-miterlimit:4;stroke-dasharray:none;stroke-opacity:1" />
    <path
       d="M 8.2008747,4.8017799 C 7.3298544,4.5765775 6.0762703,4.4892799 4.7946247,4.4892799 C 4.4284402,4.4892799 4.0567757,4.4721417 3.7008747,4.4892799 C 2.8111222,4.5321255 2.010532,4.640921 1.3883747,4.8017799"
       id="path3364"
       style="opacity:1;fill:none;fill-opacity:1;fill-rule:evenodd;stroke:#000000;stroke-width:0.1;stroke-linecap:round;stroke-linejoin:round;marker:none;marker-start:none;marker-mid:none;marker-end:none;stroke-miterlimit:4;stroke-dasharray:none;stroke-dashoffset:0;stroke-opacity:1;visibility:visible;display:inline;overflow:visible;enable-background:accumulate" />
    <path
       d="M 5.4863657,4.6972614 C 5.2607424,4.6879515 5.029944,4.6830249 4.7946247,4.6830249 C 3.7219696,4.683025 2.7401457,4.7790453 1.9196247,4.9330249"
       id="path3366"
       style="opacity:1;fill:none;fill-opacity:1;fill-rule:evenodd;stroke:#000000;stroke-width:0.1;stroke-linecap:round;stroke-linejoin:round;marker:none;marker-start:none;marker-mid:none;marker-end:none;stroke-miterlimit:4;stroke-dasharray:none;stroke-dashoffset:0;stroke-opacity:1;visibility:visible;display:inline;overflow:visible;enable-background:accumulate" />
    <path
       d="M 0.77660939,11.144373 C 1.9516983,10.486476 6.415031,10.36363 7.6522464,10.827108"
       id="path3410"
       style="opacity:1;fill:none;fill-opacity:0.75;fill-rule:evenodd;stroke:#25617f;stroke-width:1.20000005;stroke-linecap:round;stroke-linejoin:round;marker:none;marker-start:none;marker-mid:none;marker-end:none;stroke-miterlimit:4;stroke-dasharray:none;stroke-dashoffset:0;stroke-opacity:1;visibility:visible;display:inline;overflow:visible;enable-background:accumulate" />
    <path
       d="M 3.0449516,9.0845313 C 4.1488833,9.3734659 5.4359595,9.396098 6.5019092,9.0923603"
       id="path3412"
       style="fill:none;fill-opacity:0.75;fill-rule:evenodd;stroke:#000000;stroke-width:0.15000001;stroke-linecap:round;stroke-linejoin:miter;stroke-miterlimit:4;stroke-dasharray:none;stroke-opacity:1" />
  </g>
</svg>
