<?xml version="1.0" encoding="UTF-8" standalone="no"?>
<!-- Created with Inkscape (http://www.inkscape.org/) -->
<svg
   xmlns:svg="http://www.w3.org/2000/svg"
   xmlns="http://www.w3.org/2000/svg"
   xmlns:xlink="http://www.w3.org/1999/xlink"
   version="1.0"
   width="160"
   height="224"
   id="svg2">
  <defs
     id="defs4" />
  <g
     id="layer1">
    <g
       transform="matrix(-1,0,0,1,32,-512)"
       id="g3689">
      <path
         d="M 4,516 C 8.5643688,517.85046 25.598677,535.54363 28,540"
         id="path9226"
         style="fill:none;fill-opacity:0.75;fill-rule:evenodd;stroke:#ffffff;stroke-width:6;stroke-linecap:round;stroke-linejoin:miter;stroke-miterlimit:4;stroke-dasharray:none;stroke-opacity:1" />
      <path
         d="M 4,516 C 8.5643688,517.85046 25.598677,535.54363 28,540"
         id="path3236"
         style="fill:none;fill-opacity:0.75;fill-rule:evenodd;stroke:#ffcb90;stroke-width:3.5;stroke-linecap:round;stroke-linejoin:miter;stroke-miterlimit:4;stroke-dasharray:none;stroke-opacity:1" />
      <rect
         width="32"
         height="32"
         x="0"
         y="512"
         id="rect3687"
         style="opacity:1;fill:none;fill-opacity:1;fill-rule:evenodd;stroke:none;stroke-width:2.5;stroke-linecap:butt;stroke-linejoin:miter;marker:none;marker-start:none;marker-mid:none;marker-end:none;stroke-miterlimit:4;stroke-dasharray:none;stroke-dashoffset:0;stroke-opacity:1;visibility:visible;display:inline;overflow:visible;enable-background:accumulate" />
    </g>
    <use
       id="use9762"
       x="0"
       y="0"
       width="160"
       height="224"
       xlink:href="#g3689" />
    <use
       transform="translate(0,64)"
       id="use9766"
       x="0"
       y="0"
       width="160"
       height="224"
       xlink:href="#g3689" />
    <use
       transform="translate(0,128)"
       id="use9770"
       x="0"
       y="0"
       width="160"
       height="224"
       xlink:href="#g3689" />
    <use
       transform="translate(32,0)"
       id="use9776"
       x="0"
       y="0"
       width="160"
       height="224"
       xlink:href="#g3689" />
    <use
       transform="translate(32,128)"
       id="use9784"
       x="0"
       y="0"
       width="160"
       height="224"
       xlink:href="#g3689" />
    <use
       transform="translate(32,192)"
       id="use9788"
       x="0"
       y="0"
       width="160"
       height="224"
       xlink:href="#g3689" />
    <use
       transform="translate(64,32)"
       id="use9792"
       x="0"
       y="0"
       width="160"
       height="224"
       xlink:href="#g3689" />
    <use
       transform="translate(96,64)"
       id="use9808"
       x="0"
       y="0"
       width="160"
       height="224"
       xlink:href="#g3689" />
    <use
       transform="translate(96,128)"
       id="use9812"
       x="0"
       y="0"
       width="160"
       height="224"
       xlink:href="#g3689" />
    <use
       transform="translate(128,0)"
       id="use9818"
       x="0"
       y="0"
       width="160"
       height="224"
       xlink:href="#g3689" />
    <use
       transform="translate(128,96)"
       id="use9824"
       x="0"
       y="0"
       width="160"
       height="224"
       xlink:href="#g3689" />
    <use
       transform="translate(128,192)"
       id="use9830"
       x="0"
       y="0"
       width="160"
       height="224"
       xlink:href="#g3689" />
  </g>
</svg>
