<?xml version="1.0" encoding="UTF-8" standalone="no"?>
<!-- Created with Inkscape (http://www.inkscape.org/) -->
<svg
   xmlns:svg="http://www.w3.org/2000/svg"
   xmlns="http://www.w3.org/2000/svg"
   xmlns:xlink="http://www.w3.org/1999/xlink"
   version="1.0"
   width="416"
   height="352"
   id="svg2">
  <defs
     id="defs4" />
  <g
     id="layer1">
    <use
       id="use6203"
       x="0"
       y="0"
       width="416"
       height="352"
       xlink:href="#g3689" />
    <g
       transform="translate(0,-512)"
       id="g3689">
      <path
         d="M 4,516 C 8.5643688,517.85046 25.598677,535.54363 28,540"
         id="path9226"
         style="fill:none;fill-opacity:0.75;fill-rule:evenodd;stroke:#ffffff;stroke-width:6;stroke-linecap:round;stroke-linejoin:miter;stroke-miterlimit:4;stroke-dasharray:none;stroke-opacity:1" />
      <path
         d="M 4,516 C 8.5643688,517.85046 25.598677,535.54363 28,540"
         id="path3236"
         style="fill:none;fill-opacity:0.75;fill-rule:evenodd;stroke:#72a8c3;stroke-width:3.5;stroke-linecap:round;stroke-linejoin:miter;stroke-miterlimit:4;stroke-dasharray:none;stroke-opacity:1" />
      <rect
         width="32"
         height="32"
         x="0"
         y="512"
         id="rect3687"
         style="opacity:1;fill:none;fill-opacity:1;fill-rule:evenodd;stroke:none;stroke-width:2.5;stroke-linecap:butt;stroke-linejoin:miter;marker:none;marker-start:none;marker-mid:none;marker-end:none;stroke-miterlimit:4;stroke-dasharray:none;stroke-dashoffset:0;stroke-opacity:1;visibility:visible;display:inline;overflow:visible;enable-background:accumulate" />
    </g>
    <use
       transform="translate(0,32)"
       id="use6205"
       x="0"
       y="0"
       width="416"
       height="352"
       xlink:href="#g3689" />
    <use
       transform="translate(0,128)"
       id="use6211"
       x="0"
       y="0"
       width="416"
       height="352"
       xlink:href="#g3689" />
    <use
       transform="translate(0,224)"
       id="use6217"
       x="0"
       y="0"
       width="416"
       height="352"
       xlink:href="#g3689" />
    <use
       transform="translate(0,288)"
       id="use6221"
       x="0"
       y="0"
       width="416"
       height="352"
       xlink:href="#g3689" />
    <use
       transform="translate(0,320)"
       id="use6223"
       x="0"
       y="0"
       width="416"
       height="352"
       xlink:href="#g3689" />
    <use
       transform="translate(32,0)"
       id="use6225"
       x="0"
       y="0"
       width="416"
       height="352"
       xlink:href="#g3689" />
    <use
       transform="translate(32,32)"
       id="use6227"
       x="0"
       y="0"
       width="416"
       height="352"
       xlink:href="#g3689" />
    <use
       transform="translate(32,160)"
       id="use6235"
       x="0"
       y="0"
       width="416"
       height="352"
       xlink:href="#g3689" />
    <use
       transform="translate(64,64)"
       id="use6251"
       x="0"
       y="0"
       width="416"
       height="352"
       xlink:href="#g3689" />
    <use
       transform="translate(64,128)"
       id="use6255"
       x="0"
       y="0"
       width="416"
       height="352"
       xlink:href="#g3689" />
    <use
       transform="translate(64,192)"
       id="use6259"
       x="0"
       y="0"
       width="416"
       height="352"
       xlink:href="#g3689" />
    <use
       transform="translate(64,224)"
       id="use6261"
       x="0"
       y="0"
       width="416"
       height="352"
       xlink:href="#g3689" />
    <use
       transform="translate(64,256)"
       id="use6263"
       x="0"
       y="0"
       width="416"
       height="352"
       xlink:href="#g3689" />
    <use
       transform="translate(64,288)"
       id="use6265"
       x="0"
       y="0"
       width="416"
       height="352"
       xlink:href="#g3689" />
    <use
       transform="translate(96,0)"
       id="use6269"
       x="0"
       y="0"
       width="416"
       height="352"
       xlink:href="#g3689" />
    <use
       transform="translate(96,32)"
       id="use6271"
       x="0"
       y="0"
       width="416"
       height="352"
       xlink:href="#g3689" />
    <use
       transform="translate(96,64)"
       id="use6273"
       x="0"
       y="0"
       width="416"
       height="352"
       xlink:href="#g3689" />
    <use
       transform="translate(96,96)"
       id="use6275"
       x="0"
       y="0"
       width="416"
       height="352"
       xlink:href="#g3689" />
    <use
       transform="translate(96,160)"
       id="use6279"
       x="0"
       y="0"
       width="416"
       height="352"
       xlink:href="#g3689" />
    <use
       transform="translate(96,192)"
       id="use6281"
       x="0"
       y="0"
       width="416"
       height="352"
       xlink:href="#g3689" />
    <use
       transform="translate(96,256)"
       id="use6285"
       x="0"
       y="0"
       width="416"
       height="352"
       xlink:href="#g3689" />
    <use
       transform="translate(128,32)"
       id="use6293"
       x="0"
       y="0"
       width="416"
       height="352"
       xlink:href="#g3689" />
    <use
       transform="translate(128,128)"
       id="use6299"
       x="0"
       y="0"
       width="416"
       height="352"
       xlink:href="#g3689" />
    <use
       transform="translate(128,224)"
       id="use6305"
       x="0"
       y="0"
       width="416"
       height="352"
       xlink:href="#g3689" />
    <use
       transform="translate(128,288)"
       id="use6309"
       x="0"
       y="0"
       width="416"
       height="352"
       xlink:href="#g3689" />
    <use
       transform="translate(128,320)"
       id="use6311"
       x="0"
       y="0"
       width="416"
       height="352"
       xlink:href="#g3689" />
    <use
       transform="translate(160,0)"
       id="use6313"
       x="0"
       y="0"
       width="416"
       height="352"
       xlink:href="#g3689" />
    <use
       transform="translate(160,32)"
       id="use6315"
       x="0"
       y="0"
       width="416"
       height="352"
       xlink:href="#g3689" />
    <use
       transform="translate(160,160)"
       id="use6323"
       x="0"
       y="0"
       width="416"
       height="352"
       xlink:href="#g3689" />
    <use
       transform="translate(160,192)"
       id="use6325"
       x="0"
       y="0"
       width="416"
       height="352"
       xlink:href="#g3689" />
    <use
       transform="translate(160,224)"
       id="use6327"
       x="0"
       y="0"
       width="416"
       height="352"
       xlink:href="#g3689" />
    <use
       transform="translate(160,256)"
       id="use6329"
       x="0"
       y="0"
       width="416"
       height="352"
       xlink:href="#g3689" />
    <use
       transform="translate(160,288)"
       id="use6331"
       x="0"
       y="0"
       width="416"
       height="352"
       xlink:href="#g3689" />
    <use
       transform="translate(160,320)"
       id="use6333"
       x="0"
       y="0"
       width="416"
       height="352"
       xlink:href="#g3689" />
    <use
       transform="translate(192,64)"
       id="use6339"
       x="0"
       y="0"
       width="416"
       height="352"
       xlink:href="#g3689" />
    <use
       transform="translate(192,96)"
       id="use6341"
       x="0"
       y="0"
       width="416"
       height="352"
       xlink:href="#g3689" />
    <use
       transform="translate(192,128)"
       id="use6343"
       x="0"
       y="0"
       width="416"
       height="352"
       xlink:href="#g3689" />
    <use
       transform="translate(192,224)"
       id="use6349"
       x="0"
       y="0"
       width="416"
       height="352"
       xlink:href="#g3689" />
    <use
       transform="translate(192,256)"
       id="use6351"
       x="0"
       y="0"
       width="416"
       height="352"
       xlink:href="#g3689" />
    <use
       transform="translate(192,320)"
       id="use6355"
       x="0"
       y="0"
       width="416"
       height="352"
       xlink:href="#g3689" />
    <use
       transform="translate(224,0)"
       id="use6357"
       x="0"
       y="0"
       width="416"
       height="352"
       xlink:href="#g3689" />
    <use
       transform="translate(224,32)"
       id="use6359"
       x="0"
       y="0"
       width="416"
       height="352"
       xlink:href="#g3689" />
    <use
       transform="translate(224,128)"
       id="use6365"
       x="0"
       y="0"
       width="416"
       height="352"
       xlink:href="#g3689" />
    <use
       transform="translate(224,160)"
       id="use6367"
       x="0"
       y="0"
       width="416"
       height="352"
       xlink:href="#g3689" />
    <use
       transform="translate(224,224)"
       id="use6371"
       x="0"
       y="0"
       width="416"
       height="352"
       xlink:href="#g3689" />
    <use
       transform="translate(256,128)"
       id="use6387"
       x="0"
       y="0"
       width="416"
       height="352"
       xlink:href="#g3689" />
    <use
       transform="translate(256,320)"
       id="use6399"
       x="0"
       y="0"
       width="416"
       height="352"
       xlink:href="#g3689" />
    <use
       transform="translate(288,32)"
       id="use6403"
       x="0"
       y="0"
       width="416"
       height="352"
       xlink:href="#g3689" />
    <use
       transform="translate(288,64)"
       id="use6405"
       x="0"
       y="0"
       width="416"
       height="352"
       xlink:href="#g3689" />
    <use
       transform="translate(288,96)"
       id="use6407"
       x="0"
       y="0"
       width="416"
       height="352"
       xlink:href="#g3689" />
    <use
       transform="translate(288,160)"
       id="use6411"
       x="0"
       y="0"
       width="416"
       height="352"
       xlink:href="#g3689" />
    <use
       transform="translate(288,192)"
       id="use6413"
       x="0"
       y="0"
       width="416"
       height="352"
       xlink:href="#g3689" />
    <use
       transform="translate(288,224)"
       id="use6415"
       x="0"
       y="0"
       width="416"
       height="352"
       xlink:href="#g3689" />
    <use
       transform="translate(320,64)"
       id="use6427"
       x="0"
       y="0"
       width="416"
       height="352"
       xlink:href="#g3689" />
    <use
       transform="translate(320,160)"
       id="use6433"
       x="0"
       y="0"
       width="416"
       height="352"
       xlink:href="#g3689" />
    <use
       transform="translate(320,192)"
       id="use6435"
       x="0"
       y="0"
       width="416"
       height="352"
       xlink:href="#g3689" />
    <use
       transform="translate(320,256)"
       id="use6439"
       x="0"
       y="0"
       width="416"
       height="352"
       xlink:href="#g3689" />
    <use
       transform="translate(320,288)"
       id="use6441"
       x="0"
       y="0"
       width="416"
       height="352"
       xlink:href="#g3689" />
    <use
       transform="translate(320,320)"
       id="use6443"
       x="0"
       y="0"
       width="416"
       height="352"
       xlink:href="#g3689" />
    <use
       transform="translate(352,0)"
       id="use6445"
       x="0"
       y="0"
       width="416"
       height="352"
       xlink:href="#g3689" />
    <use
       transform="translate(352,32)"
       id="use6447"
       x="0"
       y="0"
       width="416"
       height="352"
       xlink:href="#g3689" />
    <use
       transform="translate(352,96)"
       id="use6451"
       x="0"
       y="0"
       width="416"
       height="352"
       xlink:href="#g3689" />
    <use
       transform="translate(352,128)"
       id="use6453"
       x="0"
       y="0"
       width="416"
       height="352"
       xlink:href="#g3689" />
    <use
       transform="translate(352,160)"
       id="use6455"
       x="0"
       y="0"
       width="416"
       height="352"
       xlink:href="#g3689" />
    <use
       transform="translate(352,256)"
       id="use6461"
       x="0"
       y="0"
       width="416"
       height="352"
       xlink:href="#g3689" />
    <use
       transform="translate(384,64)"
       id="use6471"
       x="0"
       y="0"
       width="416"
       height="352"
       xlink:href="#g3689" />
    <use
       transform="translate(384,96)"
       id="use6473"
       x="0"
       y="0"
       width="416"
       height="352"
       xlink:href="#g3689" />
    <use
       transform="translate(384,160)"
       id="use6477"
       x="0"
       y="0"
       width="416"
       height="352"
       xlink:href="#g3689" />
    <use
       transform="translate(384,192)"
       id="use6479"
       x="0"
       y="0"
       width="416"
       height="352"
       xlink:href="#g3689" />
    <use
       transform="translate(384,256)"
       id="use6483"
       x="0"
       y="0"
       width="416"
       height="352"
       xlink:href="#g3689" />
  </g>
</svg>
